Persian-Green,#2a9d8f
Dracula-Background,#282a36
Dracula-Foreground,#f8f8f2
Dracula-Black,#21222c
Dracula-Red,#ff5555
Dracula-Green,#50fa7b
Dracula-Yellow,#f1fa8c
Dracula-Blue,#bd93f9
Dracula-Magenta,#ff79c6
Dracula-Cyan,#8be9fd
Dracula-White,#f8f8f2
OneDark-Black,#282c34
OneDark-Red,#e06c75
OneDark-Green,#98c379
OneDark-Yellow,#e5c07b
OneDark-Blue,#61afef
OneDark-Magenta,#c678dd
OneDark-Cyan,#56b6c2
OneDark-Gray,#abb2bf
Wilmersdorf-Foreground,#c6c6c6
Wilmersdorf-Background,#282b33
Wilmersdorf-Grey,#515462
Wilmersdorf-Red,#e1c1ee
Wilmersdorf-Orange,#a6c1e0
Wilmersdorf-Green,#5b94ab
Wilmersdorf-Teal,#7ebebd
Wilmersdorf-Yellow,#cfcf9c
Wilmersdorf-Blue,#819cd6
Wilmersdorf-Light-Blue,#90a6db
Wilmersdorf-Dark-Blue,#616c96
Wilmersdorf-Magenta,#a6c1e0
Wilmersdorf-Violet,#b0a2e7
Wilmersdorf-Cyan,#7289bc
Wilmersdorf-Dark-Cyan,#6e7899